{

 "results":[
	
	{
	  "slug_name": "",
      "section": "Unfairly At Democrats' Expense",
      "subsection": "democratic",
      "title": "GOP Passes Budget Undermining State Tax Deductibility Unfairly At Democrats' Expense",
      "abstract": "The 216-212 passage of the budget resolution by the House of Representatives facilitates cutting corporate taxes. ",
      "url": "https://www.forbes.com/sites/charlestiefer/2017/10/26/republican-budget-passage-undermines-state-tax-deductibility-unfairly-at-democrats-expense/#96f2e4568219",
      "byline": "By Charles Tiefer , CONTRIBUTOR",
      "thumbnail_standard": "960seven.jpg",
      "item_type": "Article",
      "source": "Forbes",
      "updated_date": "2017-10-26",
	  "created_date": "2017-10-26",
      "published_date": "2017-10-26",
      "first_published_date": "2017-10-26",
      "material_type_facet": "News",
	  "kicker": null,
	  "des_facet": "",
      "org_facet": "",
      "per_facet": "",
      "geo_facet": "",
      "related_urls": null,
      "multimedia": ""
	},
	{
	
	  "slug_name": "",
      "section": "Defense Bill",
      "subsection": "democratic",
      "title": "89% of Senate Democrats Help Pass The $696.5B Defense Bill",
      "abstract": "Much attention has focused on a new attempt to repeal the Affordable Care Act, otherwise known as Obamacare ",
      "url": "https://www.forbes.com/sites/eriksherman/2017/09/18/91-of-senate-democrats-help-pass-the-696-5b-defense-bill/#16a28d814802",
      "byline": "By Erik Sherman , CONTRIBUTOR",
      "thumbnail_standard": "960x0 (1).jpg",
      "item_type": "Article",
      "source": "Forbes",
      "updated_date": "2017-09-18",
	  "created_date": "2017-09-18",
      "published_date": "2017-09-18",
      "first_published_date": "2017-09-18",
      "material_type_facet": "News",
	  "kicker": null,
	  "des_facet": "",
      "org_facet": "",
      "per_facet": "",
      "geo_facet": "",
      "related_urls": null,
      "multimedia": ""
	},
	{
	{
	  "slug_name": "",
	  "section": "Anti-Business",
      "subsection": "democratic",
      "title": "The Democratic Party Shouldn't Be Anti-Business",
      "abstract": "To say Democrats were shocked when Donald Trump won the 2016 would be an understatement.",
      "url": "https://www.forbes.com/sites/eriksherman/2017/09/18/91-of-senate-democrats-help-pass-the-696-5b-defense-bill/#16a28d814802",
      "byline": "By Glenda Toma , FORBES STAFF",
      "thumbnail_standard": "dems.jpg",
      "item_type": "Article",
      "source": "Forbes",
      "updated_date": "2017-10-02",
	  "created_date": "2017-10-02",
      "published_date": "2017-10-02",
      "first_published_date": "2017-10-02",
      "material_type_facet": "News",
	  "kicker": null,
	  "des_facet": "",
      "org_facet": "",
      "per_facet": "",
      "geo_facet": "",
      "related_urls": null,
      "multimedia": ""
	},
	{
	{
	  "slug_name": "",
      "section": "New Generation of Stars",
      "subsection": "democratic ",
      "title": "The Democrats Need a New Generation of Stars",
      "abstract": "One way to give the party a jolt of energy? Let a new generation step into positions of leadership in the House by 2020.",
      "url": "https://www.thedailybeast.com/the-democrats-need-a-new-generation-of-stars",
      "byline": "By MICHAEL TOMASKY ",
      "thumbnail_standard": "171009-tomasky-new-stars-tease_kma3uh.jpg",
      "item_type": "Article",
      "source": "Daily Beast",
      "updated_date": "2017-10-10",
	  "created_date": "2017-10-10",
      "published_date": "2017-10-10",
      "first_published_date": "2017-10-10",
      "material_type_facet": "News",
	  "kicker": null,
	  "des_facet": "",
      "org_facet": "",
      "per_facet": "",
      "geo_facet": "",
      "related_urls": null,
      "multimedia": ""
	},
	{
	  "slug_name": "",
      "section": "GOP Made Your Vote Useless",
      "subsection": "democratic ",
      "title": "How the GOP Made Your Vote Useless",
      "abstract": "Republicans have adroitly exploited redistricting, taking control not just of Washington but crucial governorships as well. Can the Democrats find a way to take back some turf?",
      "url": "https://www.thedailybeast.com/how-gop-gerrymandering-made-your-democratic-vote-useless",
      "byline": "By DAVID DALEY ",
      "thumbnail_standard": "171006-daley-useless-lede-2_rgl33f.jpg",
      "item_type": "Article",
      "source": "Daily Beast",
      "updated_date": "2017-10-07",
	  "created_date": "2017-10-07",
      "published_date": "2017-10-07",
      "first_published_date": "2017-10-07",
      "material_type_facet": "News",
	  "kicker": null,
	  "des_facet": "",
      "org_facet": "",
      "per_facet": "",
      "geo_facet": "",
      "related_urls": null,
      "multimedia": ""
	},
	{
	  "slug_name": "",
      "section": "Anti-Trumper",
      "subsection": "democratic ",
      "title": "NJ Democrat Phil Murphy: Probably the Next Governor, and Major Anti-Trumper",
      "abstract": "Like the Donald, Murphy went to Wharton and made money in business. The similarities definitely end there.",
      "url": "https://www.thedailybeast.com/nj-democrat-phil-murphy-probably-the-next-governor-and-major-anti-trumper",
      "byline": "By DEAN OBEIDALLAH",
      "thumbnail_standard": "170929-Obeidallah-Phil-Murphy-hero1_ophkob.jpg",
      "item_type": "Article",
      "source": "Daily Beast",
      "updated_date": "2017-10-02",
	  "created_date": "2017-10-02",
      "published_date": "2017-10-02",
      "first_published_date": "2017-10-02",
      "material_type_facet": "News",
	  "kicker": null,
	  "des_facet": "",
      "org_facet": "",
      "per_facet": "",
      "geo_facet": "",
      "related_urls": null,
      "multimedia": ""
	},
	{
	  {
	  "slug_name": "",
      "section": "Attorneys General Lead",
      "subsection": "Democratic",
      "title": "State Attorneys General Lead the Charge Against President Donald Trump",
      "abstract": "But since Donald Trump took office, 22 state attorneys general have played among the most pivotal roles slowing and stopping the march of the Trump agenda.",
      "url": "https://www.usnews.com/news/best-states/articles/2017-10-27/state-attorneys-general-lead-the-charge-against-president-donald-trump",
      "byline": "By  Alan Neuhauser, Staff Writer ",
      "thumbnail_standard": "Against trump.jpg",
      "item_type": "Article",
      "source": "usnews",
      "updated_date": "2017-10-27",
	  "created_date": "2017-10-27",
      "published_date": "2017-10-27",
      "first_published_date": "2017-10-27",
      "material_type_facet": "News",
	  "kicker": null,
	  "des_facet": "",
      "org_facet": "",
      "per_facet": "",
      "geo_facet": "",
      "related_urls": null,
      "multimedia": ""
	},
	{
	  "slug_name": "",
      "section": "Against donald trump",
      "subsection": "Democratic",
      "title": "The Return of Obama",
      "abstract": "Former President Barack Obama, left, laughs with Virginia's Democratic gubernatorial candidate Lt. Gov. Ralph Northam during a rally in Richmond, Va., Thursday, Oct. 19, 2017. ",
      "url": "https://www.usnews.com/news/politics/articles/2017-10-19/barack-obama-returns-to-the-campaign-trail-in-virginia-avoids-talking-trump",
      "byline": "By   David Catanese, Senior Politics Writer  ",
      "thumbnail_standard": "obama return.jpg",
      "item_type": "Article",
      "source": "usnews",
      "updated_date": "2017-10-16",
	  "created_date": "2017-10-16",
      "published_date": "2017-10-16",
      "first_published_date": "2017-10-16",
      "material_type_facet": "News",
	  "kicker": null,
	  "des_facet": "",
      "org_facet": "",
      "per_facet": "",
      "geo_facet": "",
      "related_urls": null,
      "multimedia": ""
	},
	{
	  "slug_name": "",
      "section": "Attempt After Tax Cuts",
      "subsection": "Democratic",
      "title": "Trump: Another Obamacare Repeal Attempt After Tax Cuts",
      "abstract": "President Donald Trump said Tuesday congressional Republicans would take another shot at repealing and replacing the nation's health care law after they passed tax cuts, presumably extending the Obamacare debate into 2018.",
      "url": "https://www.usnews.com/news/politics/articles/2017-10-17/trump-another-obamacare-repeal-attempt-after-tax-cuts",
      "byline": "By   David Catanese, Senior Politics Writer  ",
      "thumbnail_standard": "trump.jpg",
      "item_type": "Article",
      "source": "usnews",
      "updated_date": "2017-10-17",
	  "created_date": "2017-10-17",
      "published_date": "2017-10-17",
      "first_published_date": "2017-10-17",
      "material_type_facet": "News",
	  "kicker": null,
	  "des_facet": "",
      "org_facet": "",
      "per_facet": "",
      "geo_facet": "",
      "related_urls": null,
      "multimedia": ""
	},
	{
	  "slug_name": "",
      "section": "Clinton Cash",
      "subsection": "Democratic",
      "title": "The Dossier's Clinton Cash",
      "abstract": "The Washington Post, which would not be considered by anyone to be a house organ of the Trump White House, reported Tuesday that the Clinton presidential campaign and the Democratic National Committee",
      "url": "https://www.usnews.com/opinion/thomas-jefferson-street/articles/2017-10-25/were-hillary-clintons-campaign-and-democrats-behind-the-trump-dossier",
      "byline": "By   By Peter Roff, Contributing Editor for Opinion",
      "thumbnail_standard": "hillary.jpg",
      "item_type": "Article",
      "source": "usnews",
      "updated_date": "2017-10-25",
	  "created_date": "2017-10-25",
      "published_date": "2017-10-25",
      "first_published_date": "2017-10-25",
      "material_type_facet": "News",
	  "kicker": null,
	  "des_facet": "",
      "org_facet": "",
      "per_facet": "",
      "geo_facet": "",
      "related_urls": null,
      "multimedia": ""
	},
	{
	  "slug_name": "",
      "section": "Northam",
      "subsection": "Democratic",
      "title": "Trump, Northam Trade Barbs as Va. Governor’s Race Nears",
      "abstract": "Trump accused the Virginia gubernatorial candidate of not showing up to work, and Northam fired back by pointing to the president’s golf trips.",
      "url": "https://www.usnews.com/news/politics/articles/2017-10-26/ralph-northam-responds-to-trump-dont-talk-to-me-about-showing-up",
      "byline": "By Gabrielle Levy, Political Reporter",
      "thumbnail_standard": "northam.jpg",
      "item_type": "Article",
      "source": "usnews",
      "updated_date": "2017-10-26",
	  "created_date": "2017-10-26",
      "published_date": "2017-10-26",
      "first_published_date": "2017-10-26",
      "material_type_facet": "News",
	  "kicker": null,
	  "des_facet": "",
      "org_facet": "",
      "per_facet": "",
      "geo_facet": "",
      "related_urls": null,
      "multimedia": ""
	}
]
}